<svg width="1194" height="1474" viewBox="0 0 1194 1474" fill="none" xmlns="http://www.w3.org/2000/svg">
<path fill-rule="evenodd" clip-rule="evenodd" d="M965.67 0.676229C915.979 5.9603 874.945 26.2816 848.665 58.6249L843.247 65.2941L842.745 99.0405C842.456 118.541 842.629 161.24 843.151 200.178C843.653 237.244 843.919 267.713 843.746 267.886C842.695 268.937 800.204 264.157 779.581 260.667C712.916 249.389 675.987 234.531 621.274 196.969C603.705 184.905 594.899 179.26 594.331 179.699C583.268 188.246 547.688 213.738 542.121 217.105C498.529 243.475 430.415 262.187 359.259 267.346L352.076 267.865L351.882 283.132L351.688 298.402L353.318 298.399C354.214 298.396 360.283 297.91 366.803 297.313C457.778 289.013 527.54 266.068 579.897 227.226C586.65 222.216 593.012 217.568 594.039 216.896L595.905 215.672L612.661 227.157C673.56 268.892 738.619 289.96 830.094 297.563L844.964 298.799L845.465 315.305C845.743 324.384 846.48 352.667 847.107 378.153C849.042 457.077 851.991 554.301 852.926 570.174L853.382 577.897H860.096H866.813L867.157 575.562C867.602 572.535 869.02 343.809 869.533 191.706C869.799 113.463 870.184 72.665 870.667 71.7156C871.067 70.9245 873.584 67.369 876.253 63.8134C913.922 13.6506 996.643 -4.81682 1058.34 23.1589C1064.65 26.0159 1064.95 25.6069 1059.27 21.908C1035.18 6.21405 996.375 -2.58975 965.67 0.676229ZM196.02 83.5675C157.082 87.6783 116.666 108.421 90.0788 137.934L84.5858 144.033L84.1618 156.374C83.932 163.16 83.5439 186.335 83.3021 207.872C83.0603 229.408 82.7766 247.12 82.6662 247.233C82.3109 247.604 60.5776 243.182 47.6212 240.101C40.6115 238.436 34.7782 237.212 34.6558 237.382C34.0527 238.221 23.7682 281.854 21.2904 294.091C-5.19568 424.841 -7.06749 580.542 16.2242 715.13C75.6924 1058.76 260.551 1306.03 579.479 1468.56L589.179 1473.5H596.723L604.267 1473.5L617.199 1466.88C935.691 1303.87 1120.68 1054 1178.27 709.022C1202.9 561.51 1197.72 395.695 1164.21 258.524C1161.41 247.066 1159.03 237.585 1158.92 237.459C1158.82 237.331 1151.66 238.851 1143.03 240.833C1134.4 242.815 1124.34 244.973 1120.68 245.627L1114.04 246.818V262.551C1114.04 271.203 1114.12 278.281 1114.22 278.281C1114.32 278.278 1119.25 277.341 1125.18 276.197C1131.1 275.054 1136 274.164 1136.06 274.224C1137.15 275.331 1145.56 317.004 1149.27 339.714C1170.67 470.591 1168.26 610.488 1142.37 740.064C1079.4 1055.23 908.507 1280.04 614.026 1435.11L597.2 1443.97L587.799 1439.05C377.64 1329.07 232.844 1187.06 140.131 1000.01C108.478 936.154 92.1477 890.582 87.3502 852.722C84.4932 830.177 84.0096 738.694 86.4367 679.205C87.3293 657.271 88.6996 623.322 89.4817 603.762C92.3477 532.093 95.536 462.674 100.226 369.892C101.384 346.971 103.829 289.745 105.662 242.717L108.994 157.216L112.95 151.192C132.026 122.147 179.359 96.8523 222.079 92.8758C240.397 91.1712 264.155 95.9388 289.873 106.477C297.179 109.471 294.859 107.546 284.897 102.348C256.285 87.4186 224.055 80.606 196.02 83.5675ZM81.7228 294.151C81.6153 302.615 80.5705 344.78 79.4002 387.855C72.3876 646.42 71.6293 722.23 75.1491 813.089C75.576 824.09 75.782 833.234 75.6088 833.407C75.1939 833.822 66.6856 803.78 61.7508 784.477C28.0731 652.757 20.1231 518.808 37.7635 380.308C42.2057 345.436 53.2038 286.097 57.1474 275.726L57.7266 274.206L69.8232 276.487L81.9198 278.765L81.7228 294.151ZM725.693 416.315C679.644 421.264 633.114 445.891 613.468 475.711L609.154 482.261L608.706 492.895C608.461 498.746 607.395 534.57 606.336 572.508C605.279 610.443 604.329 641.589 604.228 641.715C604.123 641.843 599.275 640.613 593.451 638.983C587.626 637.35 582.635 636.275 582.357 636.595C581.235 637.881 572.303 659.236 569.899 666.383C526.713 794.78 622.047 920.618 762.508 920.618H779.214L774.166 927.263C762.502 942.614 756.964 959.248 756.952 978.982C756.946 987.89 756.905 988.138 755.331 988.457C754.442 988.636 748.865 989.481 742.936 990.332C627.711 1006.9 544.9 1067.95 505.634 1165.27C498.935 1181.87 487.477 1217.45 485.751 1227.01C484.757 1232.52 487.378 1228.37 489.746 1220.69C514.372 1140.76 568.048 1073.43 631.571 1042.77C666.574 1025.88 719.522 1014.77 778.322 1011.98C792.711 1011.3 791.986 1011.6 789.582 1007.29C777.814 986.242 795.771 944.116 834.297 902.389C836.805 899.673 838.856 897.195 838.856 896.881C838.856 896.568 817.274 896.168 790.896 895.992C733.458 895.607 724.92 894.729 702.058 886.845C624.707 860.174 576.094 785.471 586.567 709.381C588.462 695.627 596.197 665.553 597.842 665.553C598.03 665.553 603.111 666.666 609.13 668.028C766.076 703.502 900.181 689.041 992.255 626.713C1017.51 609.616 1046.5 581.202 1046.5 573.538C1046.5 568.747 1046.76 568.553 1032.85 583.909C967.933 655.611 850.91 682.056 695.517 660.14C673.837 657.083 630.896 649.205 630.147 648.145C630.069 648.038 631.054 612.279 632.332 568.684L634.655 489.417L639.285 482.464C675.936 427.444 740.948 409.819 814.874 434.854C825.371 438.409 825.445 438.332 816.373 433.301C791.126 419.297 757.147 412.932 725.693 416.315ZM448.031 450.828C399.158 455.933 357.432 484.273 336.585 526.525C332.319 535.17 325.85 553.354 325.85 556.698C325.85 562.922 384.267 793.224 386.799 796.983C411.028 832.944 467.347 848.438 526.31 835.365C536.251 833.159 546.431 829.896 541.604 830.46C524.131 832.505 517.486 832.95 504.281 832.956C458.122 832.977 429.206 820.671 413.213 794.2L409.685 788.364L380.834 672.532L351.984 556.701L353.342 550.235C369.123 475.102 440.314 439.248 528.824 461.856C539.95 464.698 540.789 464.615 532.275 461.519C508.129 452.736 472.756 448.246 448.031 450.828Z" fill="#FBFAFA"/>
<path fill-rule="evenodd" clip-rule="evenodd" d="M581.233 226.339C526.705 266.546 456.851 289.632 365.893 297.501L351.492 298.746L351.964 319.169C352.224 330.399 352.436 375.887 352.436 420.253V500.917L360.159 492.976C397.753 454.333 451.642 441.195 512.659 455.79C551.976 465.197 588.138 486.62 605.453 510.762L607.859 514.121L608.304 500.203C608.549 492.552 608.791 485.42 608.841 484.36C609.376 473.622 638.026 447.279 662.56 434.97C726.225 403.027 799.641 410.655 844.499 453.868L849.064 458.268L848.604 442.819C847.825 416.625 846.12 348.891 845.598 323.381L845.102 299.143L842.878 298.814C841.654 298.635 835.803 298.119 829.877 297.668C742.101 290.978 672.435 268.447 613.057 227.539C603.665 221.07 595.885 215.774 595.771 215.774C595.655 215.774 589.114 220.53 581.233 226.339ZM54.7662 285.649C43.0576 334.14 34.7225 393.937 30.4057 460.423C29.1369 479.957 29.1369 563.033 30.4057 582.566C35.9107 667.317 47.1595 733.347 69.8452 814.098C72.8693 824.863 75.4546 833.562 75.586 833.428C75.7203 833.297 75.5054 825.457 75.1083 816.012C71.6632 734.073 72.2603 647.518 77.6429 447.849C78.6281 411.296 80.0521 358.438 80.8103 330.385C81.5656 302.334 82.0642 279.263 81.9179 279.12C81.5358 278.738 60.6503 274.744 58.8889 274.714C57.5754 274.693 57.1186 275.902 54.7662 285.649ZM1123.2 276.627L1114.04 278.442L1113.95 393.501C1113.75 654.441 1112.92 805.058 1111.6 817.516C1108.77 844.444 1104.51 868.748 1098.22 893.881C1093.49 912.785 1093.55 912.441 1096.09 905.888C1166.57 724.161 1183.28 475.64 1138 282.416C1135.88 273.326 1137.21 273.848 1123.2 276.627Z" fill="#BABABA"/>
<path fill-rule="evenodd" clip-rule="evenodd" d="M981.645 10.9907C933.643 15.6628 896.631 35.2467 873.19 68.3691L869.805 73.1517L869.775 172.665C869.751 263.88 869.097 385.387 867.894 523.829L867.422 577.897H860.075H852.731L852.254 564.424C851.994 557.014 851.307 536.403 850.731 518.62C850.155 500.839 849.471 480.073 849.212 472.475L848.74 458.665L844.337 454.208C831.562 441.281 823.385 436.952 800.416 430.943C730.09 412.55 669.15 433.03 637.479 485.706L634.968 489.88L632.69 568.815C631.436 612.228 630.511 647.847 630.63 647.963C633.156 650.426 701.353 661.239 732.159 664.06C872.536 676.915 971.85 649.972 1033.97 582.184C1045.12 570.019 1046.93 568.83 1046.78 573.771C1046.58 580.515 1023.84 604.037 1001.66 620.45C911.068 687.486 772.808 704.81 612.712 669.189C605.503 667.583 599.147 666.272 598.589 666.272C597.472 666.272 592.737 680.211 590.289 690.701C584.113 717.187 584.665 749.026 591.728 773.572C607.777 829.335 655.91 875.157 714.101 890.072C733.41 895.019 741.363 895.565 796.586 895.714C819.767 895.78 838.969 896.064 839.253 896.347C839.536 896.631 837.199 899.703 834.055 903.175C796.022 945.164 779.101 984.057 789.311 1006.02C790.478 1008.53 791.436 1010.84 791.436 1011.13C791.436 1011.43 786.666 1011.9 780.838 1012.17C725.803 1014.74 673.518 1024.76 640.192 1039.12C573.998 1067.64 521.614 1129.72 492.241 1214.43C484.859 1235.72 482.814 1235.07 489.038 1213.41C507.517 1149.09 529.29 1109.24 565.773 1072.94C611.396 1027.55 672.145 999.581 747.608 989.219L756.588 987.986L756.645 977.474C756.752 958.06 763.959 937.999 775.56 924.818L778.447 921.541L759.974 921.117C609.07 917.672 517.79 779.127 578.106 645.076C580.417 639.938 582.56 635.771 582.871 635.816C583.178 635.863 587.883 637.12 593.328 638.613C598.771 640.106 603.398 641.153 603.613 640.942C603.825 640.727 604.831 612.073 605.849 577.267L607.697 513.978L604.544 509.867C562.391 454.9 460.104 437.499 403.087 475.595C378.798 491.823 360.36 519.509 353.861 549.515L352.306 556.701L380.759 670.941C410.661 790.997 409.986 788.475 414.067 795.204C432.666 825.878 479.586 839.232 537.807 830.413C550.987 828.419 550.936 828.419 546.428 830.12C487.787 852.239 415.094 837.727 387.39 798.368L384.025 793.591L354.605 675.425L325.181 557.259L326.984 550.524C331.206 534.744 340.568 515.897 350.031 504.126L352.443 501.126L351.999 325.22L351.554 149.314L346.061 143.925C334.88 132.951 323.957 124.55 309.878 116.093C301.863 111.281 299.415 110.098 292.441 107.668C290.464 106.979 285.001 104.999 280.302 103.268C242.606 89.386 214.72 89.6368 177.842 104.199C148.32 115.857 124.354 133.575 112.129 152.789L109.46 156.98L105.591 253.019C103.465 305.839 100.429 374.597 98.8467 405.815C93.6343 508.655 90.2668 587.157 85.8933 707.945C83.8722 763.768 85.3231 839.772 88.804 860.272C92.4461 881.719 98.9124 904.542 107.349 925.747C196.28 1149.21 351.228 1314.7 587.435 1438.5L597.188 1443.61L612.581 1435.52C830.359 1321.02 978.997 1170.04 1069.29 971.632C1091.13 923.624 1099.8 895.744 1107.13 849.847C1113.53 809.796 1113.25 828.672 1113.59 429.17L1113.9 73.8771L1109.9 67.9333C1096.26 47.6418 1073.72 26.834 1064.14 25.6846C1063.33 25.5891 1060.4 24.4845 1057.64 23.2336C1035.04 13.0118 1007.11 8.51286 981.645 10.9907Z" fill="#747474"/>
<path fill-rule="evenodd" clip-rule="evenodd" d="M109.045 160.091C109.054 161.67 109.2 162.234 109.373 161.339C109.544 160.446 109.538 159.153 109.359 158.467C109.179 157.78 109.036 158.509 109.045 160.091ZM108.314 178.412C108.314 179.794 108.46 180.361 108.642 179.669C108.821 178.979 108.821 177.848 108.642 177.155C108.46 176.462 108.314 177.03 108.314 178.412ZM107.594 196.375C107.594 197.757 107.74 198.324 107.923 197.632C108.105 196.942 108.105 195.808 107.923 195.118C107.74 194.425 107.594 194.993 107.594 196.375ZM106.875 214.338C106.875 215.72 107.024 216.287 107.203 215.594C107.385 214.902 107.385 213.77 107.203 213.081C107.024 212.388 106.875 212.955 106.875 214.338ZM106.158 232.3C106.158 233.683 106.305 234.247 106.487 233.557C106.666 232.865 106.666 231.733 106.487 231.041C106.305 230.351 106.158 230.915 106.158 232.3ZM105.439 250.98C105.439 252.362 105.585 252.929 105.767 252.237C105.949 251.547 105.949 250.416 105.767 249.723C105.585 249.03 105.439 249.598 105.439 250.98ZM104.719 268.943C104.719 270.325 104.869 270.892 105.048 270.2C105.23 269.51 105.23 268.378 105.048 267.686C104.869 266.993 104.719 267.56 104.719 268.943ZM1113.67 411.565C1113.67 485.067 1113.76 515.243 1113.86 478.622C1113.96 442 1113.96 381.861 1113.86 344.98C1113.76 308.099 1113.67 338.063 1113.67 411.565ZM104.003 286.906C104.003 288.288 104.149 288.855 104.331 288.162C104.51 287.47 104.51 286.338 104.331 285.649C104.149 284.956 104.003 285.523 104.003 286.906ZM869.333 298.041C869.333 305.549 869.441 308.525 869.569 304.65C869.698 300.778 869.698 294.635 869.569 290.998C869.438 287.365 869.33 290.533 869.333 298.041ZM103.283 304.868C103.283 306.251 103.43 306.818 103.612 306.125C103.791 305.433 103.791 304.301 103.612 303.612C103.43 302.919 103.283 303.483 103.283 304.868ZM102.564 322.831C102.564 324.213 102.713 324.778 102.892 324.088C103.074 323.395 103.074 322.264 102.892 321.571C102.713 320.882 102.564 321.446 102.564 322.831ZM352.044 353.727C352.044 369.334 352.139 375.72 352.253 367.916C352.369 360.112 352.369 347.341 352.253 339.534C352.139 331.731 352.044 338.116 352.044 353.727ZM868.614 405.815C868.614 413.323 868.721 416.3 868.85 412.425C868.981 408.553 868.978 402.409 868.85 398.773C868.718 395.139 868.614 398.307 868.614 405.815ZM469.377 455.542C470.273 455.712 471.565 455.706 472.252 455.527C472.938 455.348 472.207 455.208 470.628 455.214C469.046 455.223 468.484 455.369 469.377 455.542ZM481.942 455.527C482.635 455.709 483.766 455.709 484.459 455.527C485.149 455.348 484.584 455.199 483.202 455.199C481.817 455.199 481.253 455.348 481.942 455.527ZM656.684 460.96L653.845 464.014L656.896 461.175C659.738 458.533 660.281 457.906 659.738 457.906C659.618 457.906 658.245 459.283 656.684 460.96ZM849.12 469.761C849.126 471.738 849.266 472.46 849.43 471.37C849.597 470.278 849.591 468.66 849.421 467.776C849.251 466.892 849.117 467.788 849.12 469.761ZM94.6616 485.21C94.6616 486.593 94.8079 487.16 94.99 486.467C95.1691 485.775 95.1691 484.643 94.99 483.954C94.8079 483.261 94.6616 483.828 94.6616 485.21ZM849.83 493.832C849.83 495.611 849.97 496.337 850.14 495.447C850.311 494.561 850.311 493.104 850.14 492.214C849.97 491.327 849.83 492.053 849.83 493.832ZM867.894 511.076C867.894 518.387 868.002 521.378 868.13 517.721C868.262 514.067 868.262 508.084 868.13 504.43C868.002 500.773 867.894 503.764 867.894 511.076ZM634.282 506.045C634.282 507.825 634.422 508.553 634.592 507.663C634.762 506.774 634.762 505.32 634.592 504.43C634.422 503.541 634.282 504.269 634.282 506.045ZM93.2227 516.825C93.2227 518.208 93.372 518.772 93.5541 518.082C93.7332 517.39 93.7332 516.258 93.5541 515.566C93.372 514.876 93.2227 515.44 93.2227 516.825ZM850.535 517.184C850.541 518.763 850.69 519.327 850.86 518.431C851.033 517.539 851.024 516.246 850.845 515.56C850.666 514.87 850.526 515.601 850.535 517.184ZM633.571 530.836C633.577 532.812 633.718 533.534 633.882 532.442C634.046 531.349 634.043 529.734 633.873 528.85C633.703 527.964 633.565 528.859 633.571 530.836ZM606.987 535.863C606.993 537.839 607.133 538.562 607.297 537.472C607.461 536.379 607.458 534.761 607.288 533.878C607.118 532.994 606.981 533.89 606.987 535.863ZM851.251 538.738C851.26 540.32 851.406 540.881 851.579 539.986C851.75 539.093 851.744 537.8 851.565 537.114C851.385 536.427 851.245 537.159 851.251 538.738ZM632.843 555.623C632.843 557.402 632.983 558.128 633.156 557.238C633.326 556.351 633.326 554.894 633.156 554.005C632.983 553.118 632.843 553.844 632.843 555.623ZM851.956 558.498C851.956 559.88 852.105 560.444 852.284 559.755C852.466 559.062 852.466 557.931 852.284 557.238C852.105 556.548 851.956 557.113 851.956 558.498ZM606.258 560.653C606.258 562.43 606.399 563.158 606.572 562.268C606.742 561.379 606.742 559.925 606.572 559.035C606.399 558.146 606.258 558.874 606.258 560.653ZM91.0673 566.4C91.0673 567.782 91.2165 568.349 91.3957 567.657C91.5778 566.967 91.5778 565.833 91.3957 565.143C91.2165 564.451 91.0673 565.018 91.0673 566.4ZM632.135 580.41C632.141 582.387 632.279 583.109 632.446 582.016C632.61 580.927 632.607 579.309 632.434 578.425C632.264 577.541 632.129 578.434 632.135 580.41ZM90.3508 583.643C90.3508 585.026 90.4971 585.593 90.6792 584.9C90.8583 584.211 90.8583 583.079 90.6792 582.387C90.4971 581.694 90.3508 582.261 90.3508 583.643ZM605.551 585.441C605.557 587.417 605.694 588.139 605.861 587.047C606.025 585.954 606.022 584.339 605.852 583.455C605.679 582.572 605.545 583.464 605.551 585.441ZM89.6313 601.606C89.6313 602.989 89.7806 603.556 89.9597 602.863C90.1418 602.174 90.1418 601.042 89.9597 600.349C89.7806 599.657 89.6313 600.224 89.6313 601.606ZM631.407 605.198C631.407 606.977 631.547 607.705 631.717 606.816C631.89 605.926 631.89 604.472 631.717 603.583C631.547 602.693 631.407 603.421 631.407 605.198ZM604.822 610.228C604.822 612.007 604.963 612.733 605.133 611.846C605.306 610.956 605.306 609.5 605.133 608.613C604.963 607.723 604.822 608.449 604.822 610.228ZM88.9268 619.927C88.9357 621.51 89.082 622.071 89.2552 621.178C89.4253 620.283 89.4194 618.99 89.2402 618.303C89.0611 617.617 88.9208 618.348 88.9268 619.927ZM630.699 629.988C630.702 631.964 630.843 632.687 631.007 631.594C631.174 630.501 631.168 628.886 630.998 628C630.828 627.116 630.693 628.012 630.699 629.988ZM604.115 635.015C604.118 636.992 604.258 637.714 604.422 636.624C604.589 635.532 604.583 633.914 604.413 633.03C604.243 632.146 604.109 633.042 604.115 635.015ZM88.1954 638.248C88.1954 639.634 88.3416 640.198 88.5238 639.508C88.7029 638.816 88.7029 637.684 88.5238 636.992C88.3416 636.302 88.1954 636.866 88.1954 638.248ZM87.4908 657.289C87.4998 658.871 87.6461 659.433 87.8162 658.54C87.9894 657.644 87.9834 656.352 87.8043 655.665C87.6222 654.978 87.4819 655.71 87.4908 657.289ZM792.72 667.523C795.207 667.663 799.085 667.663 801.342 667.52C803.599 667.377 801.566 667.263 796.825 667.263C792.081 667.266 790.237 667.383 792.72 667.523ZM86.7714 676.688C86.7803 678.27 86.9266 678.831 87.0997 677.939C87.2699 677.043 87.2639 675.75 87.0848 675.064C86.9057 674.377 86.7654 675.109 86.7714 676.688ZM740.602 686.883C741.295 687.065 742.426 687.065 743.116 686.883C743.808 686.704 743.241 686.554 741.859 686.554C740.477 686.554 739.909 686.704 740.602 686.883ZM86.0399 696.448C86.0399 697.83 86.1862 698.397 86.3683 697.705C86.5475 697.015 86.5475 695.881 86.3683 695.191C86.1862 694.498 86.0399 695.066 86.0399 696.448ZM85.3354 716.208C85.3444 717.787 85.4906 718.348 85.6608 717.456C85.834 716.563 85.828 715.268 85.6489 714.581C85.4668 713.894 85.3264 714.626 85.3354 716.208ZM585.462 729.857C585.465 732.624 585.597 733.666 585.752 732.177C585.907 730.687 585.904 728.424 585.746 727.146C585.588 725.872 585.459 727.093 585.462 729.857ZM84.6309 736.684C84.6309 738.461 84.7712 739.189 84.9413 738.3C85.1145 737.41 85.1145 735.956 84.9413 735.066C84.7712 734.177 84.6309 734.905 84.6309 736.684ZM84.7025 767.58C84.7025 771.73 84.8189 773.425 84.9652 771.35C85.1115 769.276 85.1115 765.881 84.9652 763.806C84.8189 761.732 84.7025 763.43 84.7025 767.58ZM1112.77 794.881C1112.77 796.266 1112.92 796.83 1113.1 796.138C1113.28 795.448 1113.28 794.317 1113.1 793.624C1112.92 792.931 1112.77 793.499 1112.77 794.881ZM85.3682 805.658C85.3682 807.831 85.5026 808.721 85.6698 807.634C85.834 806.548 85.834 804.771 85.6698 803.685C85.5026 802.598 85.3682 803.485 85.3682 805.658ZM86.0549 829.729C86.0608 831.308 86.2101 831.872 86.3803 830.977C86.5534 830.084 86.5445 828.791 86.3653 828.105C86.1862 827.418 86.0459 828.15 86.0549 829.729ZM757.138 895.986C758.23 896.153 759.846 896.147 760.729 895.977C761.613 895.807 760.72 895.672 758.744 895.675C756.768 895.681 756.045 895.822 757.138 895.986ZM784.382 896.01C792.162 896.126 805.095 896.126 813.122 896.01C821.15 895.893 814.788 895.798 798.981 895.798C783.173 895.798 776.605 895.893 784.382 896.01ZM772.587 921.14C773.88 921.299 775.82 921.296 776.898 921.131C777.979 920.967 776.922 920.836 774.551 920.842C772.181 920.845 771.297 920.979 772.587 921.14ZM570.819 1085.69L568.341 1088.39L571.037 1085.91C573.545 1083.61 574.061 1083 573.512 1083C573.393 1083 572.18 1084.21 570.819 1085.69ZM563.633 1092.88L561.159 1095.57L563.851 1093.1C566.359 1090.79 566.875 1090.18 566.329 1090.18C566.207 1090.18 564.995 1091.39 563.633 1092.88ZM891.64 1231.91L888.072 1235.68L891.846 1232.11C893.921 1230.15 895.616 1228.46 895.616 1228.34C895.616 1227.8 894.951 1228.4 891.64 1231.91ZM313.995 1242.5C317.139 1245.67 319.871 1248.25 320.068 1248.25C320.265 1248.25 317.855 1245.67 314.712 1242.5C311.571 1239.34 308.837 1236.76 308.64 1236.76C308.443 1236.76 310.852 1239.34 313.995 1242.5ZM874.393 1249.15L870.829 1252.92L874.602 1249.36C878.107 1246.04 878.704 1245.38 878.167 1245.38C878.054 1245.38 876.355 1247.07 874.393 1249.15Z" fill="#563D42"/>
<path fill-rule="evenodd" clip-rule="evenodd" d="M227.954 92.7115C229.237 92.8727 231.339 92.8727 232.626 92.7115C233.909 92.5532 232.858 92.4219 230.288 92.4219C227.721 92.4219 226.67 92.5532 227.954 92.7115ZM108.325 173.743C108.334 175.322 108.48 175.883 108.653 174.991C108.826 174.098 108.817 172.805 108.638 172.116C108.459 171.429 108.319 172.161 108.325 173.743ZM107.608 191.706C107.614 193.285 107.763 193.846 107.933 192.954C108.107 192.061 108.101 190.765 107.919 190.079C107.739 189.392 107.599 190.123 107.608 191.706ZM106.874 210.027C106.874 211.409 107.023 211.976 107.202 211.284C107.384 210.591 107.384 209.46 107.202 208.77C107.023 208.077 106.874 208.642 106.874 210.027ZM106.157 227.99C106.157 229.372 106.303 229.936 106.486 229.246C106.665 228.554 106.665 227.422 106.486 226.73C106.303 226.04 106.157 226.604 106.157 227.99ZM105.453 246.311C105.459 247.89 105.608 248.454 105.778 247.559C105.951 246.666 105.945 245.373 105.763 244.684C105.584 243.997 105.444 244.729 105.453 246.311ZM1113.63 262.835C1113.63 271.528 1113.73 274.988 1113.86 270.519C1113.98 266.053 1113.98 258.939 1113.86 254.712C1113.73 250.487 1113.63 254.141 1113.63 262.835ZM869.335 270.74C869.332 278.642 869.437 281.974 869.568 278.141C869.696 274.31 869.696 267.844 869.568 263.772C869.44 259.7 869.335 262.835 869.335 270.74ZM104.733 264.274C104.742 265.853 104.888 266.414 105.062 265.521C105.232 264.629 105.226 263.333 105.047 262.647C104.868 261.96 104.724 262.691 104.733 264.274ZM104.002 282.595C104.002 283.977 104.148 284.544 104.33 283.852C104.509 283.159 104.509 282.027 104.33 281.338C104.148 280.645 104.002 281.212 104.002 282.595ZM81.7758 291.216C81.7758 293.39 81.9102 294.279 82.0744 293.193C82.2386 292.106 82.2386 290.327 82.0744 289.24C81.9102 288.153 81.7758 289.043 81.7758 291.216ZM103.282 300.558C103.282 301.94 103.429 302.507 103.611 301.814C103.79 301.122 103.79 299.99 103.611 299.301C103.429 298.608 103.282 299.172 103.282 300.558ZM81.0564 319.237C81.0564 321.41 81.1907 322.3 81.3579 321.213C81.5221 320.127 81.5221 318.347 81.3579 317.261C81.1907 316.174 81.0564 317.064 81.0564 319.237ZM102.563 318.52C102.563 319.903 102.712 320.467 102.891 319.777C103.073 319.085 103.073 317.953 102.891 317.261C102.712 316.571 102.563 317.135 102.563 318.52ZM845.545 323.909C845.548 326.279 845.682 327.163 845.844 325.87C846.002 324.581 845.999 322.64 845.835 321.56C845.67 320.479 845.539 321.536 845.545 323.909ZM101.846 336.48C101.846 337.865 101.993 338.43 102.175 337.74C102.354 337.048 102.354 335.916 102.175 335.223C101.993 334.534 101.846 335.098 101.846 336.48ZM80.3279 346.18C80.3339 348.156 80.4742 348.881 80.6384 347.789C80.8026 346.696 80.7996 345.078 80.6295 344.194C80.4593 343.311 80.3249 344.206 80.3279 346.18ZM846.247 355.521C846.25 357.497 846.39 358.22 846.557 357.127C846.721 356.037 846.715 354.419 846.545 353.536C846.375 352.652 846.241 353.545 846.247 355.521ZM868.613 378.872C868.613 386.577 868.72 389.73 868.849 385.879C868.977 382.025 868.977 375.72 868.849 371.869C868.72 368.015 868.613 371.167 868.613 378.872ZM79.5995 372.406C79.5995 374.185 79.7398 374.911 79.913 374.024C80.0831 373.134 80.0831 371.678 79.913 370.791C79.7398 369.901 79.5995 370.627 79.5995 372.406ZM846.963 383.544C846.969 385.518 847.109 386.243 847.274 385.15C847.441 384.058 847.435 382.44 847.265 381.556C847.094 380.672 846.96 381.568 846.963 383.544ZM78.892 398.632C78.8979 400.609 79.0383 401.331 79.2025 400.238C79.3666 399.146 79.3637 397.531 79.1935 396.647C79.0203 395.76 78.886 396.656 78.892 398.632ZM847.682 411.565C847.688 413.541 847.829 414.264 847.993 413.171C848.157 412.078 848.154 410.463 847.984 409.58C847.811 408.696 847.677 409.589 847.682 411.565ZM78.1725 424.497C78.1785 426.474 78.3188 427.196 78.483 426.104C78.6472 425.011 78.6442 423.396 78.474 422.512C78.3039 421.629 78.1665 422.521 78.1725 424.497ZM96.816 436.352C96.816 437.734 96.9623 438.302 97.1444 437.609C97.3235 436.919 97.3235 435.788 97.1444 435.095C96.9623 434.403 96.816 434.97 96.816 436.352ZM848.402 438.149C848.408 440.126 848.545 440.848 848.712 439.756C848.877 438.663 848.871 437.048 848.701 436.164C848.53 435.281 848.396 436.173 848.402 438.149ZM77.4441 450.724C77.4441 452.5 77.5844 453.228 77.7575 452.339C77.9277 451.449 77.9277 449.995 77.7575 449.106C77.5844 448.216 77.4441 448.944 77.4441 450.724ZM849.118 463.295C849.124 465.271 849.265 465.994 849.429 464.904C849.596 463.812 849.59 462.193 849.42 461.31C849.25 460.426 849.116 461.319 849.118 463.295ZM867.893 484.852C867.896 492.36 868.001 495.334 868.132 491.459C868.261 487.587 868.261 481.443 868.129 477.807C868.001 474.174 867.893 477.341 867.893 484.852ZM76.7366 477.667C76.7425 479.643 76.8798 480.365 77.047 479.273C77.2112 478.18 77.2082 476.565 77.0381 475.681C76.8649 474.798 76.7306 475.69 76.7366 477.667ZM29.2754 481.619C29.2754 483.001 29.4247 483.566 29.6068 482.876C29.7859 482.183 29.7859 481.052 29.6068 480.359C29.4247 479.67 29.2754 480.234 29.2754 481.619ZM849.829 488.085C849.829 489.862 849.969 490.59 850.139 489.7C850.31 488.811 850.31 487.357 850.139 486.467C849.969 485.578 849.829 486.306 849.829 488.085ZM1163.1 489.88C1163.11 491.856 1163.25 492.578 1163.41 491.486C1163.58 490.396 1163.57 488.778 1163.4 487.894C1163.23 487.011 1163.1 487.903 1163.1 489.88ZM608.413 492.396C608.413 494.173 608.553 494.901 608.726 494.011C608.896 493.122 608.896 491.668 608.726 490.778C608.553 489.889 608.413 490.617 608.413 492.396ZM93.9411 496.707C93.9411 498.089 94.0904 498.654 94.2695 497.964C94.4516 497.271 94.4516 496.14 94.2695 495.447C94.0904 494.758 93.9411 495.322 93.9411 496.707ZM634.29 499.94C634.296 501.917 634.433 502.639 634.6 501.546C634.764 500.454 634.761 498.839 634.588 497.955C634.418 497.071 634.284 497.964 634.29 499.94ZM76.029 505.329C76.029 507.502 76.1634 508.392 76.3276 507.305C76.4918 506.218 76.4918 504.439 76.3276 503.352C76.1634 502.266 76.029 503.155 76.029 505.329ZM28.6963 521.853C28.6963 530.349 28.8008 533.824 28.9291 529.576C29.0545 525.331 29.0545 518.378 28.9291 514.13C28.8008 509.881 28.6963 513.356 28.6963 521.853ZM850.557 511.434C850.563 513.41 850.701 514.136 850.868 513.043C851.032 511.95 851.026 510.332 850.856 509.449C850.686 508.565 850.551 509.461 850.557 511.434ZM93.2217 512.512C93.2217 513.897 93.3709 514.461 93.553 513.771C93.7322 513.079 93.7322 511.947 93.553 511.255C93.3709 510.565 93.2217 511.129 93.2217 512.512ZM607.705 517.184C607.711 519.16 607.848 519.882 608.016 518.79C608.18 517.697 608.177 516.082 608.007 515.198C607.833 514.315 607.699 515.207 607.705 517.184ZM633.57 524.369C633.576 526.343 633.716 527.068 633.881 525.975C634.045 524.883 634.042 523.265 633.872 522.381C633.702 521.497 633.564 522.393 633.57 524.369ZM92.5052 529.038C92.5052 530.421 92.6515 530.988 92.8336 530.295C93.0127 529.606 93.0127 528.471 92.8336 527.782C92.6515 527.089 92.5052 527.656 92.5052 529.038ZM851.265 533.349C851.265 535.129 851.405 535.854 851.575 534.967C851.749 534.078 851.749 532.621 851.575 531.734C851.405 530.845 851.265 531.57 851.265 533.349ZM75.3096 534.785C75.3096 536.959 75.4439 537.848 75.6081 536.762C75.7723 535.675 75.7723 533.899 75.6081 532.812C75.4439 531.722 75.3096 532.612 75.3096 534.785ZM606.986 542.329C606.992 544.306 607.132 545.028 607.296 543.938C607.46 542.846 607.457 541.228 607.287 540.344C607.117 539.46 606.98 540.356 606.986 542.329ZM91.7857 545.562C91.7857 546.948 91.935 547.512 92.1141 546.822C92.2962 546.13 92.2962 544.998 92.1141 544.306C91.935 543.616 91.7857 544.18 91.7857 545.562ZM632.854 549.515C632.857 551.491 632.997 552.214 633.161 551.121C633.328 550.031 633.322 548.413 633.152 547.53C632.982 546.646 632.848 547.539 632.854 549.515ZM851.969 553.826C851.978 555.408 852.125 555.969 852.295 555.077C852.468 554.181 852.462 552.888 852.283 552.202C852.101 551.515 851.961 552.247 851.969 553.826ZM1163.1 554.545C1163.11 556.522 1163.25 557.244 1163.41 556.151C1163.58 555.059 1163.57 553.444 1163.4 552.56C1163.23 551.676 1163.1 552.569 1163.1 554.545ZM29.2754 562.089C29.2754 563.471 29.4247 564.039 29.6068 563.346C29.7859 562.656 29.7859 561.522 29.6068 560.832C29.4247 560.14 29.2754 560.707 29.2754 562.089ZM91.0662 562.089C91.0662 563.471 91.2155 564.039 91.3946 563.346C91.5767 562.656 91.5767 561.522 91.3946 560.832C91.2155 560.14 91.0662 560.707 91.0662 562.089ZM74.599 567.478C74.602 569.848 74.7364 570.732 74.8976 569.442C75.0558 568.15 75.0528 566.209 74.8886 565.131C74.7244 564.051 74.5931 565.107 74.599 567.478ZM606.269 566.758C606.272 568.735 606.412 569.457 606.577 568.367C606.744 567.275 606.738 565.657 606.568 564.773C606.398 563.889 606.263 564.785 606.269 566.758ZM852.689 572.508C852.695 574.087 852.844 574.652 853.014 573.756C853.188 572.863 853.182 571.571 852.999 570.881C852.82 570.194 852.68 570.926 852.689 572.508ZM632.134 573.944C632.14 575.92 632.278 576.643 632.445 575.55C632.609 574.458 632.606 572.842 632.433 571.959C632.263 571.075 632.128 571.968 632.134 573.944ZM1162.34 574.302C1162.34 575.688 1162.49 576.252 1162.67 575.562C1162.85 574.87 1162.85 573.738 1162.67 573.045C1162.49 572.356 1162.34 572.92 1162.34 574.302ZM90.3498 579.333C90.3498 580.715 90.496 581.282 90.6781 580.59C90.8573 579.9 90.8573 578.768 90.6781 578.076C90.496 577.383 90.3498 577.95 90.3498 579.333ZM605.55 591.907C605.556 593.883 605.693 594.606 605.86 593.513C606.024 592.42 606.021 590.805 605.851 589.922C605.678 589.038 605.544 589.931 605.55 591.907ZM1023.48 593.522L1019.56 597.654L1023.69 593.728C1027.53 590.08 1028.15 589.393 1027.62 589.393C1027.5 589.393 1025.65 591.25 1023.48 593.522ZM1028.14 597.475L1025.3 600.529L1028.36 597.69C1031.2 595.048 1031.74 594.421 1031.2 594.421C1031.08 594.421 1029.71 595.797 1028.14 597.475ZM89.6303 597.296C89.6303 598.678 89.7796 599.245 89.9587 598.552C90.1408 597.863 90.1408 596.728 89.9587 596.039C89.7796 595.346 89.6303 595.913 89.6303 597.296ZM631.415 599.093C631.421 601.069 631.561 601.791 631.725 600.699C631.889 599.606 631.886 597.991 631.716 597.107C631.546 596.224 631.409 597.116 631.415 599.093ZM73.8975 604.481C73.8975 607.446 74.0259 608.658 74.1811 607.174C74.3363 605.693 74.3363 603.269 74.1811 601.785C74.0259 600.305 73.8975 601.517 73.8975 604.481ZM88.9108 615.258C88.9108 616.641 89.0601 617.208 89.2392 616.515C89.4213 615.823 89.4213 614.691 89.2392 614.002C89.0601 613.309 88.9108 613.876 88.9108 615.258ZM604.83 616.336C604.836 618.312 604.976 619.035 605.141 617.942C605.305 616.85 605.302 615.234 605.132 614.351C604.962 613.467 604.824 614.36 604.83 616.336ZM630.698 623.522C630.701 625.495 630.842 626.221 631.006 625.128C631.173 624.035 631.167 622.417 630.997 621.534C630.827 620.65 630.692 621.546 630.698 623.522ZM88.2093 633.579C88.2152 635.162 88.3645 635.723 88.5347 634.827C88.7078 633.935 88.6989 632.642 88.5197 631.955C88.3406 631.269 88.2003 632 88.2093 633.579ZM73.2168 658.009C73.2198 663.146 73.3333 665.153 73.4706 662.469C73.6109 659.785 73.6109 655.581 73.4706 653.128C73.3303 650.677 73.2168 652.871 73.2168 658.009ZM87.4749 652.62C87.4749 654.002 87.6241 654.569 87.8032 653.877C87.9854 653.184 87.9854 652.053 87.8032 651.363C87.6241 650.671 87.4749 651.238 87.4749 652.62ZM781.181 667.508C782.456 667.666 784.718 667.669 786.208 667.514C787.701 667.359 786.656 667.227 783.892 667.224C781.124 667.221 779.903 667.35 781.181 667.508ZM807.061 667.508C808.345 667.669 810.446 667.669 811.733 667.508C813.017 667.35 811.966 667.218 809.395 667.218C806.828 667.218 805.777 667.35 807.061 667.508ZM86.7703 671.661C86.7793 673.24 86.9256 673.801 87.0987 672.908C87.2689 672.016 87.2629 670.723 87.0838 670.034C86.9047 669.347 86.7643 670.078 86.7703 671.661ZM745.279 686.898C746.175 687.068 747.467 687.062 748.154 686.883C748.841 686.704 748.109 686.563 746.53 686.569C744.948 686.578 744.386 686.725 745.279 686.898ZM789.107 686.898C790.003 687.068 791.295 687.062 791.982 686.883C792.668 686.704 791.937 686.563 790.358 686.569C788.776 686.578 788.214 686.725 789.107 686.898ZM86.0658 691.418C86.0658 693.197 86.2061 693.925 86.3792 693.036C86.5494 692.146 86.5494 690.692 86.3792 689.803C86.2061 688.913 86.0658 689.641 86.0658 691.418ZM85.3344 711.178C85.3433 712.757 85.4896 713.321 85.6598 712.426C85.8329 711.533 85.8269 710.24 85.6478 709.551C85.4657 708.864 85.3254 709.595 85.3344 711.178ZM585.393 723.033C585.393 724.415 585.542 724.982 585.721 724.289C585.903 723.597 585.903 722.465 585.721 721.776C585.542 721.083 585.393 721.65 585.393 723.033ZM84.6149 731.296C84.6238 732.875 84.7701 733.436 84.9433 732.544C85.1134 731.651 85.1075 730.356 84.9284 729.669C84.7492 728.982 84.6089 729.714 84.6149 731.296ZM585.393 736.685C585.393 738.067 585.542 738.634 585.721 737.941C585.903 737.249 585.903 736.117 585.721 735.428C585.542 734.735 585.393 735.299 585.393 736.685ZM73.1959 743.151C73.1959 746.903 73.3183 748.441 73.4676 746.563C73.6139 744.685 73.6139 741.613 73.4676 739.739C73.3183 737.861 73.1959 739.395 73.1959 743.151ZM84.6806 780.154C84.6836 783.313 84.8089 784.519 84.9612 782.829C85.1134 781.139 85.1105 778.551 84.9552 777.079C84.803 775.607 84.6776 776.993 84.6806 780.154ZM73.8736 779.793C73.8736 781.966 74.0079 782.856 74.1721 781.769C74.3363 780.683 74.3363 778.903 74.1721 777.817C74.0079 776.73 73.8736 777.62 73.8736 779.793ZM74.5572 804.58C74.5632 806.163 74.7125 806.724 74.8827 805.831C75.0558 804.936 75.0498 803.643 74.8677 802.956C74.6886 802.27 74.5483 803.001 74.5572 804.58ZM85.3582 812.486C85.3642 814.462 85.5045 815.184 85.6687 814.092C85.8329 812.999 85.8299 811.384 85.6598 810.5C85.4866 809.617 85.3523 810.509 85.3582 812.486ZM86.0389 834.398C86.0389 835.783 86.1852 836.347 86.3673 835.658C86.5464 834.965 86.5464 833.834 86.3673 833.141C86.1852 832.452 86.0389 833.016 86.0389 834.398ZM629.415 840.148C630.958 841.727 632.382 843.02 632.579 843.02C632.776 843.02 631.674 841.727 630.131 840.148C628.588 838.566 627.164 837.273 626.967 837.273C626.77 837.273 627.871 838.566 629.415 840.148ZM637.675 848.411C639.015 849.794 640.275 850.925 640.472 850.925C640.669 850.925 639.735 849.794 638.394 848.411C637.054 847.026 635.794 845.895 635.597 845.895C635.4 845.895 636.335 847.026 637.675 848.411ZM609.655 856.869C609.655 856.979 612.159 859.484 615.222 862.439L620.793 867.81L615.422 862.239C610.434 857.069 609.655 856.343 609.655 856.869ZM757.155 921.152C759.839 921.29 764.042 921.29 766.496 921.149C768.95 921.009 766.753 920.896 761.618 920.899C756.48 920.899 754.471 921.015 757.155 921.152ZM756.465 978.456C756.468 981.224 756.596 982.269 756.752 980.776C756.907 979.286 756.904 977.023 756.746 975.748C756.587 974.471 756.462 975.692 756.465 978.456ZM564.37 1074.2L559.719 1079.05L564.57 1074.4C569.075 1070.08 569.746 1069.35 569.218 1069.35C569.107 1069.35 566.925 1071.53 564.37 1074.2ZM909.581 1213.23L907.47 1215.56L909.808 1213.45C911.984 1211.48 912.471 1210.89 911.918 1210.89C911.793 1210.89 910.742 1211.94 909.581 1213.23ZM287.768 1215.43C287.768 1215.55 288.819 1216.6 290.103 1217.76L292.44 1219.87L290.329 1217.54C288.362 1215.36 287.768 1214.87 287.768 1215.43ZM898.822 1224.72L895.257 1228.49L899.031 1224.93C901.102 1222.97 902.801 1221.27 902.801 1221.16C902.801 1220.62 902.135 1221.22 898.822 1224.72ZM297.829 1226.18C297.829 1226.29 300.333 1228.79 303.396 1231.75L308.964 1237.12L303.593 1231.55C298.605 1226.37 297.829 1225.65 297.829 1226.18ZM320.102 1248.45C320.102 1248.56 322.607 1251.06 325.67 1254.02L331.238 1259.39L325.867 1253.82C320.879 1248.65 320.102 1247.93 320.102 1248.45ZM867.21 1256.34L863.642 1260.11L867.416 1256.54C870.921 1253.23 871.518 1252.57 870.98 1252.57C870.867 1252.57 869.171 1254.26 867.21 1256.34ZM337.346 1265C337.346 1265.13 338.397 1266.18 339.68 1267.34L342.015 1269.45L339.904 1267.11C337.937 1264.94 337.346 1264.45 337.346 1265Z" fill="#787474"/>
</svg>
