<svg width="14" height="17" viewBox="0 0 14 17" fill="none" xmlns="http://www.w3.org/2000/svg">
<path d="M12.013 6.60714C12.013 5.17342 11.4434 3.79842 10.4296 2.78463C9.41586 1.77084 8.04086 1.2013 6.60714 1.2013C5.17342 1.2013 3.79842 1.77084 2.78463 2.78463C1.77084 3.79842 1.2013 5.17342 1.2013 6.60714C1.2013 8.82474 2.97562 11.7151 6.60714 15.1772C10.2387 11.7151 12.013 8.82474 12.013 6.60714ZM6.60714 16.8182C2.20198 12.8142 0 9.40977 0 6.60714C0 4.85482 0.696108 3.17427 1.93519 1.93519C3.17427 0.696108 4.85482 0 6.60714 0C8.35946 0 10.04 0.696108 11.2791 1.93519C12.5182 3.17427 13.2143 4.85482 13.2143 6.60714C13.2143 9.40977 11.0123 12.8142 6.60714 16.8182Z" fill="black"/>
<path d="M6.60725 8.40909C7.08516 8.40909 7.54349 8.21924 7.88142 7.88131C8.21935 7.54338 8.4092 7.08505 8.4092 6.60714C8.4092 6.12924 8.21935 5.6709 7.88142 5.33297C7.54349 4.99504 7.08516 4.8052 6.60725 4.8052C6.12934 4.8052 5.67101 4.99504 5.33308 5.33297C4.99515 5.6709 4.8053 6.12924 4.8053 6.60714C4.8053 7.08505 4.99515 7.54338 5.33308 7.88131C5.67101 8.21924 6.12934 8.40909 6.60725 8.40909V8.40909ZM6.60725 9.61039C5.81074 9.61039 5.04685 9.29398 4.48363 8.73076C3.92042 8.16754 3.604 7.40365 3.604 6.60714C3.604 5.81063 3.92042 5.04675 4.48363 4.48353C5.04685 3.92031 5.81074 3.6039 6.60725 3.6039C7.40376 3.6039 8.16765 3.92031 8.73087 4.48353C9.29408 5.04675 9.6105 5.81063 9.6105 6.60714C9.6105 7.40365 9.29408 8.16754 8.73087 8.73076C8.16765 9.29398 7.40376 9.61039 6.60725 9.61039Z" fill="black"/>
</svg>
