<svg width="59" height="35" viewBox="0 0 59 35" fill="none" xmlns="http://www.w3.org/2000/svg">
<path d="M45.875 14.2188C45.875 13.9287 45.7598 13.6505 45.5546 13.4454C45.3495 13.2402 45.0713 13.125 44.7812 13.125C44.4912 13.125 44.213 13.2402 44.0079 13.4454C43.8027 13.6505 43.6875 13.9287 43.6875 14.2188V25.1562C43.6875 25.4463 43.8027 25.7245 44.0079 25.9296C44.213 26.1348 44.4912 26.25 44.7812 26.25C45.0713 26.25 45.3495 26.1348 45.5546 25.9296C45.7598 25.7245 45.875 25.4463 45.875 25.1562V14.2188ZM40.4062 13.125C40.6963 13.125 40.9745 13.2402 41.1796 13.4454C41.3848 13.6505 41.5 13.9287 41.5 14.2188V25.1562C41.5 25.4463 41.3848 25.7245 41.1796 25.9296C40.9745 26.1348 40.6963 26.25 40.4062 26.25C40.1162 26.25 39.838 26.1348 39.6329 25.9296C39.4277 25.7245 39.3125 25.4463 39.3125 25.1562V14.2188C39.3125 13.9287 39.4277 13.6505 39.6329 13.4454C39.838 13.2402 40.1162 13.125 40.4062 13.125ZM37.125 14.2188C37.125 13.9287 37.0098 13.6505 36.8046 13.4454C36.5995 13.2402 36.3213 13.125 36.0312 13.125C35.7412 13.125 35.463 13.2402 35.2579 13.4454C35.0527 13.6505 34.9375 13.9287 34.9375 14.2188V25.1562C34.9375 25.4463 35.0527 25.7245 35.2579 25.9296C35.463 26.1348 35.7412 26.25 36.0312 26.25C36.3213 26.25 36.5995 26.1348 36.8046 25.9296C37.0098 25.7245 37.125 25.4463 37.125 25.1562V14.2188ZM35.4844 2.1875C34.179 2.1875 32.9271 2.70605 32.0041 3.62908C31.0811 4.55211 30.5625 5.80401 30.5625 7.10938V29.5312C30.5625 30.4015 30.9082 31.2361 31.5236 31.8514C32.1389 32.4668 32.9735 32.8125 33.8438 32.8125H46.9688C47.839 32.8125 48.6736 32.4668 49.2889 31.8514C49.9043 31.2361 50.25 30.4015 50.25 29.5312V26.25H51.8906C53.196 26.25 54.4479 25.7314 55.3709 24.8084C56.2939 23.8854 56.8125 22.6335 56.8125 21.3281V13.6719C56.8125 12.3665 56.2939 11.1146 55.3709 10.1916C54.4479 9.26855 53.196 8.75 51.8906 8.75H50.25V7.10938C50.25 5.80401 49.7314 4.55211 48.8084 3.62908C47.8854 2.70605 46.6335 2.1875 45.3281 2.1875H35.4844ZM50.25 10.9375H51.8906C53.4 10.9375 54.625 12.1625 54.625 13.6719V21.3281C54.625 22.8375 53.4 24.0625 51.8906 24.0625H50.25V10.9375ZM32.75 7.10938C32.75 5.6 33.975 4.375 35.4844 4.375H45.3281C46.8375 4.375 48.0625 5.6 48.0625 7.10938V8.75H32.75V7.10938ZM32.75 10.9375H48.0625V29.5312C48.0625 29.8213 47.9473 30.0995 47.7421 30.3046C47.537 30.5098 47.2588 30.625 46.9688 30.625H33.8438C33.5537 30.625 33.2755 30.5098 33.0704 30.3046C32.8652 30.0995 32.75 29.8213 32.75 29.5312V10.9375Z" fill="black"/>
<g clip-path="url(#clip0_465_761)">
<path d="M20.5833 10.3334C21.4123 10.3333 22.21 10.6501 22.8131 11.2188C23.4163 11.7875 23.7793 12.5652 23.8279 13.3927L23.8333 13.5834V15.5518C23.8309 15.8444 23.752 16.1313 23.6046 16.384C23.4571 16.6367 23.2462 16.8465 22.9927 16.9926L22.8768 17.0555C22.5263 17.2275 22.2288 17.491 22.0157 17.8182C21.8027 18.1454 21.682 18.5241 21.6665 18.9142C21.6509 19.3044 21.7411 19.6914 21.9275 20.0345C22.1138 20.3776 22.3894 20.664 22.7251 20.8634L22.8768 20.9446C23.3458 21.1765 23.7651 21.6553 23.8258 22.288L23.8333 22.4483V24.4167C23.8334 25.2457 23.5167 26.0433 22.9479 26.6465C22.3792 27.2496 21.6016 27.6127 20.774 27.6613L20.5833 27.6667H5.41667C4.58769 27.6668 3.79003 27.35 3.18689 26.7813C2.58375 26.2126 2.22072 25.4349 2.17209 24.6074L2.16667 24.4167V22.4483C2.16667 21.7918 2.54801 21.2805 3.00734 21.0075L3.12325 20.9446C3.47375 20.7726 3.77124 20.509 3.98428 20.1819C4.19732 19.8547 4.31799 19.476 4.33353 19.0858C4.34907 18.6957 4.2589 18.3086 4.07256 17.9655C3.88621 17.6224 3.61062 17.3361 3.27492 17.1367L3.12325 17.0555C2.65417 16.8236 2.23492 16.3448 2.17426 15.7121L2.16667 15.5529V13.5834C2.16663 12.7544 2.48336 11.9567 3.05206 11.3536C3.62077 10.7504 4.39845 10.3874 5.226 10.3388L5.41667 10.3334H20.5833ZM20.5833 12.5H5.41667C5.15133 12.5001 4.89522 12.5975 4.69694 12.7738C4.49865 12.9501 4.37197 13.1931 4.34092 13.4566L4.33334 13.5834V15.2463C4.97541 15.6164 5.51182 16.145 5.89127 16.7815C6.27072 17.4181 6.48053 18.1414 6.50064 18.8822C6.52075 19.623 6.35048 20.3566 6.00612 21.0128C5.66175 21.669 5.15481 22.2259 4.53375 22.6303L4.33334 22.7538V24.4167C4.33337 24.6821 4.43079 24.9382 4.60711 25.1364C4.78344 25.3347 5.0264 25.4614 5.28992 25.4925L5.41667 25.5H20.5833C20.8487 25.5 21.1048 25.4026 21.3031 25.2263C21.5014 25.0499 21.628 24.807 21.6591 24.5435L21.6667 24.4167V22.7538C21.0246 22.3837 20.4882 21.8551 20.1087 21.2186C19.7293 20.582 19.5195 19.8587 19.4994 19.1179C19.4793 18.3771 19.6495 17.6435 19.9939 16.9873C20.3383 16.3311 20.8452 15.7741 21.4663 15.3698L21.6667 15.2463V13.5834C21.6666 13.318 21.5692 13.0619 21.3929 12.8636C21.2166 12.6653 20.9736 12.5387 20.7101 12.5076L20.5833 12.5ZM8.83334 15.75C9.09868 15.7501 9.35479 15.8475 9.55307 16.0238C9.75136 16.2001 9.87804 16.4431 9.90909 16.7066L9.91667 16.8334V21.1667C9.91636 21.4428 9.81064 21.7084 9.62109 21.9092C9.43154 22.11 9.17247 22.2308 8.89683 22.247C8.62118 22.2632 8.34976 22.1735 8.13802 21.9963C7.92628 21.819 7.7902 21.5676 7.75759 21.2935L7.75 21.1667V16.8334C7.75 16.5461 7.86414 16.2705 8.06731 16.0673C8.27047 15.8642 8.54602 15.75 8.83334 15.75Z" fill="black"/>
<path d="M12.8031 16.0648C12.6048 15.8885 12.3487 15.7911 12.0833 15.791C11.796 15.791 11.5205 15.9052 11.3173 16.1083C11.1142 16.3115 11 16.587 11 16.8744V21.2077L11.0076 21.3344C11.0402 21.6086 11.1763 21.86 11.388 22.0372C11.5998 22.2145 11.8712 22.3041 12.1468 22.288C12.4225 22.2718 12.6815 22.151 12.8711 21.9502C13.0606 21.7494 13.1664 21.4838 13.1667 21.2077V16.8744L13.1591 16.7476C13.1281 16.4841 13.0014 16.2411 12.8031 16.0648Z" fill="black"/>
</g>
<defs>
<clipPath id="clip0_465_761">
<rect width="26" height="26" fill="white" transform="translate(0 6)"/>
</clipPath>
</defs>
</svg>
