<svg width="40" height="29" viewBox="0 0 40 29" fill="none" xmlns="http://www.w3.org/2000/svg">
<path d="M14.8099 21.6255L3.66939 10.4307L0 14.118L14.8099 29L40 3.68726L36.3306 0L14.8099 21.6255Z" fill="#E5B611"/>
</svg>
